module codeberg.org/FiskFan1999/glacierupload

go 1.18

require (
	github.com/aws/aws-sdk-go v1.44.67
	github.com/cheggaaa/pb/v3 v3.1.0
)

require (
	github.com/VividCortex/ewma v1.1.1 // indirect
	github.com/fatih/color v1.10.0 // indirect
	github.com/jmespath/go-jmespath v0.4.0 // indirect
	github.com/mattn/go-colorable v0.1.8 // indirect
	github.com/mattn/go-isatty v0.0.12 // indirect
	github.com/mattn/go-runewidth v0.0.12 // indirect
	github.com/rivo/uniseg v0.2.0 // indirect
	golang.org/x/sys v0.0.0-20220503163025-988cb79eb6c6 // indirect
)
